{
	"module": "duelist",
	"author": "Regallion",
	"data": {
		"skills": [
			{
				"id": "rapierlore",
				"name": "fencing",
				"desc": "Familliarize yourself with the usage of a rapier.",
				"require": "g.rapierdmg>100",
				"need": "armssource",
				"level": 6,
				"buy": {
					"sp": 5
				},
				"run": {
					"stamina": 2
				},
				"mod": {
					"rapierdmg": 5
				},
				"once": {
					"loot": {
						"trainingrapier": 1
					}
				}
			}
		],
		"upgrades": [
			{
				"id": "fencing_lessons",
				"name": "fencing lessons",
				"require": "g.rapierlore>=5",
				"desc": "Take additional lessons in the art of fencing.",
				"max": 1,
				"cost": {
					"tomes": "20+g.fencing_lessons*15",
					"research": "2000+g.fencing_lessons*1500",
					"stamina": "25+g.fencing_lessons*10"
				},
				"mod": {
					"rapierlore.max": 1
				},
				"flavor": "A riposte here, a reprise there, you'll get the hang of it"
			},
			{
				"id": "quickthoughts",
				"name": "proactive thinking",
				"require": "g.rapierlore>=8",
				"desc": "With practice, you can start casting a spell at the same time as you perform a fencing maneuver.",
				"max": 1,
				"cost": {
					"tomes": 60,
					"research": 5000,
					"gems": 100
				},
				"mod": {
					"self.chaincast": 0.5
				},
				"flavor": "Quickly think all the thoughts."
			},
			{
				"id": "quickthoughts2",
				"name": "focused flourishes",
				"require": "g.rapierlore>=13",
				"desc": "Your mastery affords you an ability to channel your swings into spellcasting motions.",
				"max": 1,
				"cost": {
					"tomes": 100,
					"research": 12000,
					"gems": 200,
					"runestones": 25
				},
				"mod": {
					"self.chaincast": 0.5
				},
				"flavor": "We put casting in your casting, so you can cast while you cast."
			}
		],
		"classes": [
			{
				"id": "duelist",
				"tags": "t_tier3",
				"desc": "Master of one-on-one combat, the speed of your spellcasting is matched only by your rapier.",
				"require": "g.tier2>0&&g.evil==0&&g.tier3==0",
				"cost": {
					"research": 3000,
					"arcana": 20,
					"gold": 1000
				},
				"result": {
					"sp": 2
				},
				"mod": {
					"tier3": true,
					"rapierdmg": 10,
					"rapierlore.max": 2,
					"fencing_lessons.max": 1,
					"self.chaincast": 0.5,
					"spelldmg": -10
				}
			},
			{
				"id": "rune_fencer",
				"name": "rune fencer",
				"tags": "t_tier4",
				"desc": "Sharp wit, sharper blade and some quick spells as backup, make for a formidable opponent.",
				"require": "g.tier3>0&&(g.duelist+g.spellblade+g.battlemage)>0&&g.tier4==0",
				"cost": {
					"research": 5000,
					"arcana": 20,
					"gold": 2500,
					"airgem": 10,
					"firegem": 5,
					"earthgem": 5,
					"watergem": 5
				},
				"result": {
					"sp": 2
				},
				"mod": {
					"tier4": true,
					"rapierdmg": 20,
					"rapierlore.max": 2,
					"fencing_lessons.max": 3,
					"runicdmg": 5,
					"self.chaincast": 0.5,
					"spelldmg": -10
				}
			}
		],
		"tags": [
			{
				"id": "t_rapier",
				"name": "rapiers",
				"hide": true
			},
			{
				"id": "d_rapier",
				"name": "rapier drops",
				"hide": true
			}
		],
		"states": [
			{
				"id": "duel_engagement",
				"name": "engagement",
				"adj": "engaged",
				"kind": "engagement"
			}
		],
		"spells": [
			{
				"id": "engagement",
				"level": 5,
				"school": "martial",
				"tags": "t_nospellcraft",
				"cd": 10,
				"need": "g.player.weapon.hasTag('t_rapier')",
				"require": "g.rapierdmg>=125",
				"caststoppers": [1],
				"desc": "Engage the enemy in close quarters, sacrificing defense for offense. Only usable with rapiers",
				"buy": {
					"research": 1000,
					"tomes": 5
				},
				"cost": {
					"stamina": 3
				},
				"attack": {
					"hits": [
						{
							"id": "enemy_engagement",
							"name": "engaged",
							"targets": "enemyleader",
							"harmless": true,
							"dot": {
								"mod": {
									"self.speed": -5,
									"self.defense": -15,
									"self.dodge": -5
								},
								"duration": 10
							}
						},
						{
							"targets": "self",
							"dot": {
								"id": "duel_engagement",
								"name": "engaging",
								"duration": 10,
								"mod": {
									"self.defense": -30,
									"self.dodge": -5,
									"self.tohit": 5,
									"physdmg": 25,
									"spelldmg": 25
								}
							}
						}
					]
				},
				"flavor": "En garde!"
			},
			{
				"id": "disengage",
				"level": 2,
				"school": "martial",
				"tags": "t_nospellcraft",
				"cd": 10,
				"need": "g.player.weapon.hasTag('t_rapier')",
				"require": "g.rapierdmg>=125",
				"caststoppers": [1],
				"desc": "Jump away from the enemy, restoring your defensive capabilities",
				"buy": {
					"research": 1000,
					"tomes": 5
				},
				"cost": {
					"stamina": 1
				},
				"action": {
					"cure": "duel_engagement",
					"targets": "self"
				},
				"flavor": "Adios!"
			},
			{
				"id": "moulinet",
				"name": "moulinet",
				"level": 8,
				"school": "martial",
				"tags": "t_nospellcraft",
				"need": "g.player.weapon.hasTag('t_rapier')",
				"require": "g.rapierdmg>=125",
				"caststoppers": [1],
				"desc": "A graceful cut, shredding through enemies. Requires a rapier.",
				"buy": {
					"research": 1000,
					"tomes": 5
				},
				"cost": {
					"stamina": 5
				},
				"attack": {
					"damage": "(a.weapon.damage)||0",
					"targets": "enemies",
					"kind": "slash",
					"potencies": [
						"physdmg",
						"slashdmg",
						"rapierdmg"
					],
					"tohit": -2
				},
				"flavor": "A revolution in your wrist."
			},
			{
				"id": "lunge",
				"name": "lunge",
				"level": 8,
				"school": "martial",
				"tags": "t_nospellcraft",
				"need": "g.player.weapon.hasTag('t_rapier')",
				"require": "g.rapierdmg>=130",
				"caststoppers": [1],
				"desc": "A direct strike at the opponent. Requires a rapier.",
				"buy": {
					"research": 1000,
					"tomes": 5
				},
				"cost": {
					"stamina": 2
				},
				"attack": {
					"damage": "(a.weapon.damage*1.5)||0",
					"targets": "enemyleader",
					"kind": "pierce",
					"potencies": [
						"physdmg",
						"piercedmg",
						"rapierdmg"
					],
					"tohit": -1
				},
				"flavor": "A basic move, yet incredibly effective."
			},
			{
				"id": "one_two",
				"name": "one-two",
				"level": 10,
				"school": "martial",
				"tags": "t_nospellcraft",
				"need": "g.player.weapon.hasTag('t_rapier')",
				"require": "g.rapierdmg>=140",
				"caststoppers": [1],
				"desc": "An involved technique that briefly bypasses an opponent's defenses. Requires a rapier.",
				"buy": {
					"research": 3000,
					"tomes": 10
				},
				"cost": {
					"stamina": 4
				},
				"attack": {
					"damage": "(a.weapon.damage*1.6)||0",
					"targets": "enemyleader",
					"kind": "pierce",
					"potencies": [
						"physdmg",
						"piercedmg",
						"rapierdmg"
					],
					"tohit": 1
				},
				"flavor": "A refined move, for a more civilized mage."
			},
			{
				"id": "colpo_fendente",
				"name": "colpo fendente",
				"level": 12,
				"cd": 3,
				"school": "martial",
				"tags": "t_nospellcraft",
				"need": "g.player.weapon.hasTag('t_rapier')",
				"require": "g.rapierdmg>=160",
				"caststoppers": [1],
				"desc": "A downward slash, inaccurate, but devastating. Requires a rapier.",
				"buy": {
					"research": 3000,
					"tomes": 10
				},
				"cost": {
					"stamina": 6
				},
				"attack": {
					"damage": "(a.weapon.damage*2.5)||0",
					"targets": "enemyleader",
					"kind": "slash",
					"potencies": [
						"physdmg",
						"slashdmg",
						"rapierdmg"
					],
					"tohit": -3
				},
				"flavor": "A brutish move, for a less civilized mage."
			},
			{
				"id": "imbroccata",
				"name": "imbroccata",
				"level": 15,
				"cd": 10,
				"school": "martial",
				"tags": "t_nospellcraft",
				"need": "g.player.weapon.hasTag('t_rapier')",
				"require": "g.rapierdmg>=180",
				"caststoppers": [1],
				"desc": "A strike to the heart. Requires a rapier.",
				"buy": {
					"research": 5000,
					"tomes": 15
				},
				"cost": {
					"stamina": 8
				},
				"attack": {
					"damage": "(a.weapon.damage*4)||0",
					"targets": "enemyleader",
					"kind": "pierce",
					"potencies": [
						"physdmg",
						"piercedmg",
						"rapierdmg"
					],
					"tohit": -2
				},
				"flavor": "A pinnacle of rapier techniques."
			}
		],
		"potencies": [
			{
				"id": "rapierdmg",
				"name": "rapier damage",
				"value": 100,
				"damage": "Math.max((i.value/100)||0,0)"
			}
		],
		"weapons": [
			{
				"id": "trainingrapier",
				"name": "training rapier",
				"damage": 4,
				"attack": {
					"kind": "pierce",
					"damage": "i.damage||0",
					"targets": "enemyleader",
					"potencies": [
						"physdmg",
						"piercedmg",
						"rapierdmg"
					],
					"tohit": -1
				},
				"tags": "t_rapier,t_martial,t_pierce",
				"noproc": true,
				"cost": 1,
				"level": 1
			},
			{
				"id": "rapier",
				"name": "rapier",
				"damage": "2~5",
				"attack": {
					"kind": "pierce",
					"damage": "i.damage*1.1||0",
					"targets": "enemyleader",
					"potencies": [
						"physdmg",
						"piercedmg",
						"rapierdmg"
					],
					"tohit": -1
				},
				"tags": "t_martial,t_pierce,t_rapier,d_rapier,d_sword",
				"cost": 80,
				"level": 6
			},
			{
				"id": "runic_rapier",
				"name": "runic rapier",
				"damage": "3~6",
				"attack": {
					"kind": "pierce",
					"damage": "i.damage*0.85||0",
					"targets": "enemyleader",
					"potencies": [
						"physdmg",
						"piercedmg",
						"rapierdmg",
						"runicdmg"
					],
					"tohit": -1
				},
				"alter": {
					"mod": {
						"self.chaincast": 0.2,
						"spelldmg": 15
					}
				},
				"tags": "t_martial,t_pierce,t_rapier,t_runic,d_runic,d_runic_sword,d_runic_rapier",
				"cost": 200,
				"level": 10
			}
		]
	}
}