{
	"module": "target_type_testing",
	"sym": "🧪",
	"data": {
		"dungeons": [
			{
				"id": "target_debugging",
				"name": "target testing grounds",
				"distance": 1,
				"length": 100,
				"locked": false,
				"spawns": [
                    [
                        "testingdummy9",
                        "testingdummy10",
                        "testingdummy11",
                        "testingdummy12"
                    ]
				]
			}
		],
        "monsters": [
            {
                "id": "testingdummy1",
                "name": "Target Self",
                "level": 1,
                "dodge": -30,
                "hp": 10,
                "tohit": 50,
                "kind": "construct",
                "speed": 10,
                "defense": 20,
                "attack": {
                    "targets": "self",
                    "damage": 0
                }
            },
            {
                "id": "testingdummy2",
                "name": "Target Random",
                "level": 1,
                "dodge": -30,
                "hp": 10,
                "tohit": 50,
                "kind": "construct",
                "speed": 10,
                "defense": 20,
                "attack": {
                    "targets": "random",
                    "damage": 0
                }
            },
            {
                "id": "testingdummy3",
                "name": "Target Enemy",
                "level": 1,
                "dodge": -30,
                "hp": 10,
                "tohit": 50,
                "kind": "construct",
                "speed": 10,
                "defense": 20,
                "attack": {
                    "targets": "enemy",
                    "damage": 0
                }
            },
            {
                "id": "testingdummy4",
                "name": "Target Ally",
                "level": 1,
                "dodge": -30,
                "hp": 10,
                "tohit": 50,
                "kind": "construct",
                "speed": 10,
                "defense": 20,
                "attack": {
                    "targets": "ally",
                    "damage": 0
                }
            },
            {
                "id": "testingdummy5",
                "name": "Target Enemies",
                "level": 1,
                "dodge": -30,
                "hp": 10,
                "tohit": 50,
                "kind": "construct",
                "speed": 10,
                "defense": 20,
                "attack": {
                    "targets": "enemies",
                    "damage": 0
                }
            },
            {
                "id": "testingdummy6",
                "name": "Target Allies",
                "level": 1,
                "dodge": -30,
                "hp": 10,
                "tohit": 50,
                "kind": "construct",
                "speed": 10,
                "defense": 20,
                "attack": {
                    "targets": "allies",
                    "damage": 0
                }
            },
            {
                "id": "testingdummy7",
                "name": "Target Random Group",
                "level": 1,
                "dodge": -30,
                "hp": 10,
                "tohit": 50,
                "kind": "construct",
                "speed": 10,
                "defense": 20,
                "attack": {
                    "targets": "randomgroup",
                    "damage": 0
                }
            },
            {
                "id": "testingdummy8",
                "name": "Target All",
                "level": 1,
                "dodge": -30,
                "hp": 10,
                "tohit": 50,
                "kind": "construct",
                "speed": 10,
                "defense": 20,
                "attack": {
                    "targets": "all",
                    "damage": 0
                }
            },
            {
                "id": "testingdummy9",
                "name": "Target Enemy Leader",
                "level": 1,
                "dodge": -30,
                "hp": 10,
                "tohit": 50,
                "kind": "construct",
                "speed": 10,
                "defense": 20,
                "attack": {
                    "targets": "enemyleader",
                    "damage": 0
                }
            },
            {
                "id": "testingdummy10",
                "name": "Target Leader",
                "level": 1,
                "dodge": -30,
                "hp": 10,
                "tohit": 50,
                "kind": "construct",
                "speed": 10,
                "defense": 20,
                "attack": {
                    "targets": "leader",
                    "damage": 0
                }
            },
            {
                "id": "testingdummy11",
                "name": "Target Flunky",
                "level": 1,
                "dodge": -30,
                "hp": 10,
                "tohit": 50,
                "kind": "construct",
                "speed": 10,
                "defense": 20,
                "attack": {
                    "targets": "flunky",
                    "damage": 0
                }
            },
            {
                "id": "testingdummy12",
                "name": "Target Flunkies",
                "level": 1,
                "dodge": -30,
                "hp": 10,
                "tohit": 50,
                "kind": "construct",
                "speed": 10,
                "defense": 20,
                "attack": {
                    "targets": "flunkies",
                    "damage": 0
                }
            },
            {
                "id": "testingdummy13",
                "name": "Target Minion",
                "level": 1,
                "dodge": -30,
                "hp": 10,
                "tohit": 50,
                "kind": "construct",
                "speed": 10,
                "defense": 20,
                "attack": {
                    "targets": "minion",
                    "damage": 0
                }
            },
            {
                "id": "testingdummy14",
                "name": "Target Minions",
                "level": 1,
                "dodge": -30,
                "hp": 10,
                "tohit": 50,
                "kind": "construct",
                "speed": 10,
                "defense": 20,
                "attack": {
                    "targets": "minions",
                    "damage": 0
                }
            },
            {
                "id": "testingdummy15",
                "name": "Target Epicenter",
                "level": 1,
                "dodge": -30,
                "hp": 10,
                "tohit": 50,
                "kind": "construct",
                "speed": 10,
                "defense": 20,
                "attack": {
                    "targets": "epicenter",
                    "damage": 0
                }
            },
            {
                "id": "testingdummy16",
                "name": "Target Nonleader",
                "level": 1,
                "dodge": -30,
                "hp": 10,
                "tohit": 50,
                "kind": "construct",
                "speed": 10,
                "defense": 20,
                "attack": {
                    "targets": "nonleader",
                    "damage": 0
                }
            },
            {
                "id": "testingdummy17",
                "name": "Target Nonleaders",
                "level": 1,
                "dodge": -30,
                "hp": 10,
                "tohit": 50,
                "kind": "construct",
                "speed": 10,
                "defense": 20,
                "attack": {
                    "targets": "nonleaders",
                    "damage": 0
                }
            },
            {
                "id": "testingdummy18",
                "name": "Target Random Leader",
                "level": 1,
                "dodge": -30,
                "hp": 10,
                "tohit": 50,
                "kind": "construct",
                "speed": 10,
                "defense": 20,
                "attack": {
                    "targets": "randomleader",
                    "damage": 0
                }
            },
            {
                "id": "testingdummy19",
                "name": "Target Both Leaders",
                "level": 1,
                "dodge": -30,
                "hp": 10,
                "tohit": 50,
                "kind": "construct",
                "speed": 10,
                "defense": 20,
                "attack": {
                    "targets": "bothleaders",
                    "damage": 0
                }
            },
            {
                "id": "testingdummy20",
                "name": "Target Other Minion",
                "level": 1,
                "dodge": -30,
                "hp": 10,
                "tohit": 50,
                "kind": "construct",
                "speed": 10,
                "defense": 20,
                "attack": {
                    "targets": "otherminion",
                    "damage": 0
                }
            },
            {
                "id": "testingdummy21",
                "name": "Target Other Minions",
                "level": 1,
                "dodge": -30,
                "hp": 10,
                "tohit": 50,
                "kind": "construct",
                "speed": 10,
                "defense": 20,
                "attack": {
                    "targets": "otherminions",
                    "damage": 0
                }
            },
            {
                "id": "testingdummy22",
                "name": "Target Random Group - Nonprimary",
                "level": 1,
                "dodge": -30,
                "hp": 10,
                "tohit": 50,
                "kind": "construct",
                "speed": 10,
                "defense": 20,
                "attack": {
                    "targets": "randomgroupnp",
                    "damage": 0
                }
            },
            {
                "id": "testingdummy23",
                "name": "Target Placeholder",
                "level": 1,
                "dodge": -30,
                "hp": 10,
                "tohit": 50,
                "kind": "construct",
                "speed": 10,
                "defense": 20,
                "attack": {
                    "targets": "self",
                    "damage": 0
                }
            },
            {
                "id": "testingdummy24",
                "name": "Target Placeholder2",
                "level": 1,
                "dodge": -30,
                "hp": 10,
                "tohit": 50,
                "kind": "construct",
                "speed": 10,
                "defense": 20,
                "attack": {
                    "targets": "self",
                    "damage": 0
                }
            }
        ]
    }
}