{
	"module": "hall",
	"sym": "🏰",
	"data": {
		"events": [
			{
				"id": "evt_hall",
				"name": "Wizard's Hall",
				"tags": "hall",
				"desc": "Across the aeons wizards gather in hidden halls to exchange lore and augment their powers."
			}
		],
		"tasks": [
			{
				"id": "retire",
				"tags": "hall",
				"warn": true,
				"require": "g.planeslore>=999",
				"desc": "",
				"cost": {},
				"flavor": ""
			}
		],
		"upgrades": [
			{
				"id": "greatwing",
				"name": "great wing",
				"tags": "hall",
				"max": 3,
				"desc": "A new wing of the Great Hall where Wizards can lodge in comfort.",
				"require": "g.expandhall>=1",
				"cost": {
					"gold": 10000,
					"schematic": 3,
					"void": 3,
					"prestige": 10
				},
				"mod": {
					"expandhall.max": 1
				}
			},
			{
				"id": "starchamber",
				"name": "star chamber",
				"tags": "hall",
				"require": "tier6",
				"max": 3,
				"desc": "An expansive chamber for viewing the heavens.",
				"cost": {
					"sindel": 3,
					"prestige": 10,
					"dreams": 3
				},
				"mod": {
					"fame.rate": 0.000034,
					"sindel.rate": "10%"
				}
			},
			{
				"id": "expandhall",
				"name": "expanded halls",
				"tags": "hall",
				"require": "tier5",
				"max": 3,
				"cost": {
					"prestige": 50
				},
				"mod": {
					"hallSize": 1
				}
			},
			{
				"id": "spellspire",
				"max": 3,
				"tags": "hall",
				"require": "tier6",
				"desc": "A conduit for magic energy.",
				"cost": {
					"prestige": 15
				},
				"mod": {
					"spellcraft.max": "20%"
				}
			},
			{
				"id": "dreamchamber",
				"name": "dream chamber",
				"tags": "hall",
				"desc": "In some time and place, even dreams were once real.",
				"require": "tier5",
				"max": 1,
				"cost": {
					"prestige": 40
				},
				"mod": {
					"dreams.rate": 0.0001,
					"dreams.max": 5
				}
			},
			{
				"id": "puppet_enhancedlabs",
				"name": "enhanced laboratories",
				"tags": "hall",
				"desc": "Mechanical assistants and automated delivery systems.",
				"require": "g.mechamancer>0",
				"max": 5,
				"cost": {
					"prestige": 30,
					"fineparts": 15
				},
				"mod": {
					"potions.max": 0.4,
					"alchemy.max": 0.4
				}
			},
			{
				"id": "titan_foundations",
				"name": "stabilized foundations",
				"tags": "hall",
				"desc": "A procedure to prevent earthquakes from affecting member's buildings.",
				"require": "g.titan>0",
				"max": 3,
				"cost": {
					"prestige": 40,
					"deepsteel": 25
				},
				"mod": {
					"space.max": 2
				}
			},
			{
				"id": "hall_time_1",
				"name": "time fork",
				"tags": "hall",
				"desc": "Forces the timelines of all hall members to diverge without a need for a complicated procedure.",
				"require": "tier6",
				"max": 1,
				"cost": {
					"prestige": 25,
					"timesplit": 1
				},
				"mod": {
					"timesplit": 1
				}
			},
			{
				"id": "hall_time_2",
				"name": "time knife",
				"tags": "hall",
				"desc": "Carve out just a little more time in a day.",
				"require": "g.tier6>0&&g.hall_time_1>0",
				"max": 1,
				"cost": {
					"prestige": 50
				},
				"mod": {
					"timesplit.max": 1
				}
			},
			{
				"id": "hall_time_refund",
				"name": "wind back",
				"tags": "hall",
				"desc": "By using the traces left in your timewell, you can rewind the time to before you purchased it.",
				"require": "g.timewell>0",
				"max": 1,
				"cost": {
					"timewell": 1
				},
				"result": {
					"fame": 75
				},
				"disable": [
					"hall_time_refund",
					"timewell"
				]
			},
			{
				"id": "magicstables",
				"name": "magic stables",
				"tags": "hall",
				"desc": "Dedicated stabling for the hall's mounts. Useful for discerning those with aptitude for magic.",
				"require": "tier5",
				"max": 4,
				"cost": {
					"prestige": 10
				},
				"mod": {
					"animals.max": 1,
					"animals.rate": 1,
					"cleanstables.result.gold": 0.05,
					"chores.result.gold": 0.1,
					"errands.effect.gold": 0.15
				}
			},
			{
				"id": "arcanacollectors",
				"name": "arcana collectors",
				"tags": "hall",
				"desc": "Specialized facilities for newer mages to practice arcana absorption.",
				"require": "tier5",
				"max": 4,
				"cost": {
					"prestige": 10
				},
				"mod": {
					"arcana.rate": 0.0005
				}
			},
			{
				"id": "classrooms",
				"name": "classrooms",
				"tags": "hall",
				"desc": "Dedicated classrooms for efficient study and transfer of knowledge.",
				"require": "tier5",
				"max": 5,
				"cost": {
					"prestige": 10
				},
				"mod": {
					"study.effect.research": 0.15,
					"scrolls.mod.research.rate": 0.0005
				}
			},
			{
				"id": "hall_tomeinsight",
				"name": "tome of insight",
				"tags": "hall",
				"desc": "A rare treatise on the nature of learning.",
				"require": "tier5",
				"max": 2,
				"cost": {
					"prestige": 20
				},
				"mod": {
					"sp": 1
				}
			},
			{
				"id": "hall_books_basic",
				"name": "elementalism textbooks",
				"tags": "hall",
				"desc": "A set of textbooks intended to facilitate the study of the elements.",
				"require": "tier5",
				"max": 1,
				"cost": {
					"prestige": 60
				},
				"mod": {
					"firelore.buy.sp": -1,
					"earthlore.buy.sp": -1,
					"waterlore.buy.sp": -1,
					"airlore.buy.sp": -1
				}
			},
			{
				"id": "timewell",
				"name": "shallow timewell",
				"require": "g.timewell>=2",
				"tags": "hall",
				"comment": "deprecated, purposely unattainable, left in for compatibility purposes.",
				"desc": "Once, there was all the time in the world. Now, you are out of time.",
				"max": 0,
				"cost": {
					"prestige": 75
				}
			},
			{
				"id": "ritualchamber",
				"name": "ritual chamber",
				"tags": "hall",
				"require": "g.ritualist>0&&g.tier6>0",
				"desc": "A warded room deep within the hall, dedicated to carrying out rituals in safety.",
				"max": 1,
				"cost": {
					"prestige": 30
				},
				"mod": {
					"ritualism.max": 2,
					"ritualnotes.max": 12,
					"ritualward.max": 7
				}
			}
		],
		"stats": [
			{
				"id": "hallSize",
				"tags": "hall",
				"locked": false,
				"val": 3
			},
			{
				"id": "hallPoints",
				"name": "prestige",
				"tags": "hall",
				"alias": "points",
				"hide": true,
				"locked": false,
				"val": 0,
				"mod": {
					"prestige": 1
				}
			},
			{
				"id": "prestige",
				"name": "hall prestige",
				"tags": "hall",
				"require": "evt_hall",
				"val": 0,
				"locked": false,
				"mod": {
					"skill.rate": "0.1%",
					"stress.max": "0.1%"
				}
			}
		],
		"classes": [
			{
				"id": "pillarfire",
				"name": "pillar of flame",
				"desc": "",
				"max": 1,
				"tags": "t_tier7",
				"require": "g.planeslore>=999",
				"cost": {},
				"mod": {
					"tier7": true
				}
			}
		],
		"tags": [
			{
				"id": "hall",
				"name": "hall"
			}
		]
	}
}