[
	{
		"id": "silk",
		"kind": "cloth",
		"weight": 0,
		"priceMod": 5,
		"level": 1,
		"exclude": "weapon,ring,amulet",
		"alter": {
			"enchants.max": 5
		}
	},
	{
		"id": "cotton",
		"kind": "cloth",
		"level": 1,
		"exclude": "weapon,ring,amulet",
		"alter": {
			"armor": 1
		}
	},
	{
		"id": "twine",
		"kind": "cloth",
		"level": 1,
		"only": "ring,amulet",
		"alter": {
			"armor": 1
		}
	},
	{
		"id": "stone",
		"kind": "natural",
		"weight": 3,
		"level": 1,
		"only": "weapon",
		"alter": {
			"damage": 1
		}
	},
	{
		"id": "glass",
		"kind": "natural",
		"only": "t_orb",
		"weight": 1,
		"level": 2,
		"alter": {
			"enchants.max": 3
		}
	},
	{
		"id": "leather",
		"kind": "leather",
		"weight": 1,
		"priceMod": 1,
		"level": 2,
		"exclude": "weapon,ring,amulet",
		"alter": {
			"enchants.max": 2,
			"armor": 1
		}
	},
	{
		"id": "wood",
		"kind": "wood",
		"adj": "wooden",
		"priceMod": 1,
		"level": 1,
		"only": "weapon",
		"alter": {
			"damage": 1,
			"enchants.max": 2,
			"mod": {
				"self.tohit": 1
			}
		}
	},
	{
		"id": "bone",
		"kind": "natural",
		"priceMod": 1,
		"level": 2,
		"only": "weapon",
		"alter": {
			"damage": 1,
			"enchants.max": 2,
			"mod": {
				"self.tohit": 1
			}
		}
	},
	{
		"id": "bone_armor",
		"name": "bone",
		"kind": "natural",
		"priceMod": 1,
		"level": 2,
		"only": "armor",
		"alter": {
			"armor": 2,
			"enchants.max": 2
		}
	},
	{
		"id": "ivory",
		"kind": "natural",
		"priceMod": 5,
		"level": 4,
		"only": "weapon",
		"alter": {
			"damage": 2,
			"enchants.max": 2,
			"mod": {
				"self.tohit": 2
			}
		}
	},
	{
		"id": "ivory_armor",
		"name": "ivory",
		"kind": "natural",
		"priceMod": 5,
		"level": 4,
		"only": "armor",
		"alter": {
			"armor": 2,
			"enchants.max": 4
		}
	},
	{
		"id": "mat_gold",
		"name": "gold",
		"adj": "golden",
		"kind": "metal",
		"priceMod": 15,
		"level": 4,
		"only": "weapon",
		"alter": {
			"damage": 2,
			"enchants.max": 5,
			"mod": {
				"self.tohit": 1
			}
		}
	},
	{
		"id": "mat_gold_armor",
		"name": "gold",
		"kind": "metal",
		"priceMod": 15,
		"level": 4,
		"only": "armor",
		"alter": {
			"armor": 2,
			"enchants.max": 5
		}
	},
	{
		"id": "mat_ruby",
		"name": "ruby",
		"kind": "crystal",
		"priceMod": 7,
		"level": 6,
		"only": "weapon",
		"alter": {
			"damage": -2,
			"enchants.max": 8
		}
	},
	{
		"id": "mat_ruby_armor",
		"name": "ruby",
		"kind": "crystal",
		"priceMod": 7,
		"level": 6,
		"only": "armor",
		"alter": {
			"armor": -1,
			"enchants.max": 8
		}
	},
	{
		"id": "bronze",
		"name": "bronze",
		"kind": "metal",
		"priceMod": 5,
		"level": 2,
		"only": "weapon",
		"alter": {
			"damage": 1,
			"enchants.max": 2,
			"mod": {
				"self.tohit": 1
			}
		}
	},
	{
		"id": "bronze_armor",
		"name": "bronze",
		"kind": "metal",
		"priceMod": 5,
		"level": 2,
		"only": "armor",
		"alter": {
			"armor": 1,
			"enchants.max": 2
		}
	},
	{
		"id": "iron",
		"name": "iron",
		"kind": "metal",
		"priceMod": 10,
		"level": 3,
		"only": "weapon",
		"alter": {
			"damage": 2,
			"enchants.max": 3,
			"mod": {
				"self.tohit": 1
			}
		}
	},
	{
		"id": "iron_armor",
		"name": "iron",
		"kind": "metal",
		"priceMod": 10,
		"level": 3,
		"only": "armor",
		"alter": {
			"armor": 2,
			"enchants.max": 3
		}
	},
	{
		"id": "steel",
		"name": "steel",
		"kind": "metal",
		"priceMod": 20,
		"level": 4,
		"only": "weapon",
		"alter": {
			"damage": 3,
			"enchants.max": 3,
			"mod": {
				"self.tohit": 2
			}
		}
	},
	{
		"id": "steel_armor",
		"name": "steel",
		"kind": "metal",
		"priceMod": 20,
		"level": 4,
		"only": "armor",
		"alter": {
			"armor": 3,
			"enchants.max": 4
		}
	},
	{
		"id": "dragonscale",
		"name": "dragonscale",
		"kind": "leather",
		"weight": 1,
		"priceMod": 50,
		"level": 7,
		"noproc": true,
		"exclude": "weapon",
		"alter": {
			"armor": 9,
			"enchants.max": 4,
			"mod": {
				"self.resist.fire": 10
			}
		}
	},
	{
		"id": "basiliskhide",
		"name": "basilisk hide",
		"kind": "leather",
		"weight": 1,
		"priceMod": 30,
		"level": 6,
		"noproc": true,
		"exclude": "weapon",
		"alter": {
			"armor": 4,
			"enchants.max": 2,
			"mod": {
				"self.resist.paralysis": 10
			}
		}
	},
	{
		"id": "quicksteel",
		"name": "quicksteel",
		"kind": "metal",
		"priceMod": 25,
		"level": 5,
		"only": "weapon",
		"alter": {
			"damage": 5,
			"enchants.max": 5,
			"mod": {
				"self.tohit": 3
			}
		}
	},
	{
		"id": "quicksteel_armor",
		"name": "quicksteel",
		"kind": "metal",
		"priceMod": 25,
		"level": 5,
		"only": "armor",
		"alter": {
			"armor": 4,
			"enchants.max": 5
		}
	},
	{
		"id": "mithril",
		"name": "mithril",
		"kind": "metal",
		"tags": "t_mithril",
		"priceMod": 100,
		"level": 7,
		"only": "weapon",
		"alter": {
			"damage": 8,
			"enchants.max": 8,
			"mod": {
				"self.tohit": 3
			}
		}
	},
	{
		"id": "mithril_armor",
		"name": "mithril",
		"kind": "metal",
		"tags": "t_mithril",
		"priceMod": 100,
		"level": 7,
		"only": "armor",
		"alter": {
			"armor": 8,
			"enchants.max": 8
		}
	},
	{
		"id": "ebonwood",
		"name": "ebonwood",
		"kind": "wood",
		"priceMod": 100,
		"level": 8,
		"only": "weapon",
		"alter": {
			"damage": 6,
			"enchants.max": 6,
			"mod": {
				"self.tohit": 4
			}
		}
	},
	{
		"id": "ebonwood_armor",
		"name": "ebonwood",
		"kind": "wood",
		"priceMod": 100,
		"level": 8,
		"only": "armor",
		"alter": {
			"armor": 6,
			"enchants.max": 6
		}
	},
	{
		"id": "idrasil",
		"name": "idrasil",
		"kind": "wood",
		"priceMod": 100,
		"level": 9,
		"only": "weapon",
		"alter": {
			"damage": 7,
			"enchants.max": 7,
			"mod": {
				"self.tohit": 4
			}
		}
	},
	{
		"id": "idrasil_armor",
		"name": "idrasil",
		"kind": "wood",
		"priceMod": 100,
		"level": 9,
		"only": "armor",
		"alter": {
			"armor": 7,
			"enchants.max": 7
		}
	},
	{
		"id": "ethereal",
		"name": "ethereal",
		"kind": "ethereal",
		"priceMod": 200,
		"level": 8,
		"only": "weapon",
		"alter": {
			"damage": 4,
			"enchants.max": 12,
			"mod": {
				"self.tohit": 4
			}
		}
	},
	{
		"id": "ethereal_armor",
		"name": "ethereal",
		"kind": "ethereal",
		"priceMod": 100,
		"level": 8,
		"only": "armor",
		"alter": {
			"armor": 4,
			"enchants.max": 12
		}
	},
	{
		"id": "adamant",
		"name": "adamant",
		"adj": "adamantine",
		"kind": "metal",
		"priceMod": 400,
		"level": 10,
		"only": "weapon",
		"alter": {
			"damage": 10,
			"enchants.max": 8,
			"mod": {
				"self.tohit": 4
			}
		}
	},
	{
		"id": "adamant_armor",
		"name": "adamant",
		"adj": "adamantine",
		"kind": "metal",
		"priceMod": 400,
		"level": 10,
		"only": "armor",
		"alter": {
			"armor": 10,
			"enchants.max": 8
		}
	}
]