[
	{
		"id": "charmed",
		"flags": "charmed",
		"kind": "charm",
		"mod": {
			"self.tohit": -2
		}
	},
	{
		"id": "disgust",
		"adj": "disgusted",
		"kind": "disgust",
		"flags": "noattack"
	},
	{
		"id": "enrage",
		"adj": "enraged",
		"kind": "rage",
		"flags": "nodefend"
	},
	{
		"id": "entangle",
		"adj": "entangled",
		"kind": "entangle",
		"flags": "noattack"
	},
	{
		"id": "fear",
		"adj": "afraid",
		"kind": "fear",
		"flags": "noattack",
		"mod": {
			"self.defense": -5
		}
	},
	{
		"id": "paralyze",
		"adj": "paralyzed",
		"kind": "paralysis",
		"flags": "noact"
	},
	{
		"id": "prone",
		"adj": "prone",
		"kind": "knockdown",
		"flags": "noact"
	},
	{
		"id": "sacked",
		"flags": "noattack,nodefend",
		"mod": {
			"self.tohit": -10
		}
	},
	{
		"id": "sick",
		"kind": "sickness",
		"duration": 20,
		"mod": {
			"self.tohit": -2,
			"self.defense": -5
		}
	},
	{
		"id": "silence",
		"adj": "silenced",
		"kind": "silence",
		"flags": "nocast"
	},
	{
		"id": "sleep",
		"adj": "asleep",
		"kind": "sleep",
		"flags": "noact"
	},
	{
		"id": "taunt",
		"adj": "provoking",
		"kind": "taunt",
		"flags": "taunt"
	},
	{
		"id": "hide",
		"adj": "hiding",
		"kind": "hiding",
		"flags": "hiding"
	},
	{
		"id": "defensive",
		"adj": "defending",
		"kind": "defending",
		"flags": "defensive"
	}
]